<?xml version="1.0" encoding="UTF-8"?>
<svg width="120px" height="120px" viewBox="0 0 120 120" version="1.1" xmlns="http://www.w3.org/2000/svg" xmlns:xlink="http://www.w3.org/1999/xlink">
    <!-- Generator: sketchtool 52.2 (67145) - http://www.bohemiancoding.com/sketch -->
    <title>42C21DD5-3E74-449C-8E84-9A098453BA6A</title>
    <desc>Created with sketchtool.</desc>
    <g id="Desktop" stroke="none" stroke-width="1" fill="none" fill-rule="evenodd">
        <g id="SociumEx-1920px-#2-upd" transform="translate(-1400.000000, -1165.000000)">
            <rect fill="#FFFFFF" x="0" y="0" width="1920" height="6831"></rect>
            <g id="Group-5" transform="translate(95.000000, 1006.000000)" stroke-width="2">
                <g id="Ill-2-Copy-18" transform="translate(1305.000000, 159.000000)">
                    <path d="M26.25,29.75 L86.25,90.25" id="Path-28" stroke="#CDDBF2" transform="translate(56.250000, 60.000000) rotate(-90.000000) translate(-56.250000, -60.000000) "></path>
                    <path d="M86,30 L26,90" id="Path-28" stroke="#CDDBF2" transform="translate(56.000000, 60.000000) rotate(-90.000000) translate(-56.000000, -60.000000) "></path>
                    <path d="M86,90 L86,30 L62,30 M48,30 L26,30 L26,90" id="Stroke-9-Copy" stroke="#CDDBF2" transform="translate(56.000000, 60.000000) rotate(-90.000000) translate(-56.000000, -60.000000) "></path>
                    <path d="M27.6053863,54 C29.6802429,50.4131918 33.5583059,48 38,48 C44.627417,48 50,53.372583 50,60 C50,66.627417 44.627417,72 38,72 C34.4460007,72 31.2528562,70.4549974 29.055574,68" id="Combined-Shape" stroke="#CDDBF2"></path>
                    <circle id="Oval-10-Copy-4" stroke="#CDDBF2" transform="translate(26.000000, 61.000000) rotate(-90.000000) translate(-26.000000, -61.000000) " cx="26" cy="61" r="7"></circle>
                    <path d="M48.7360002,30.5063393 C43.4605503,31.9148854 38.7575117,34.7255559 35.0503046,38.5148395 C29.7567827,43.9255587 26.4936607,51.3315715 26.4936607,59.4998912 C26.4936607,76.0719949 39.9251182,89.5063393 56.4936607,89.5063393 C73.0622032,89.5063393 86.4936607,76.0719949 86.4936607,59.4998912 C86.4936607,51.2679044 83.1794723,43.8101541 77.8128678,38.3886838" id="Oval-10-Copy-3" stroke="#CDDBF2" transform="translate(56.493661, 60.000000) rotate(-90.000000) translate(-56.493661, -60.000000) "></path>
                    <path d="M75.070119,42.912425 L88.070119,74.0465792 C80.0674203,77.7864393 71.0121663,78.2033833 62.070119,74.5905616 L75.070119,42.912425 Z" id="Combined-Shape" stroke="#004BFF" transform="translate(75.070119, 60.000000) rotate(-90.000000) translate(-75.070119, -60.000000) "></path>
                </g>
            </g>
        </g>
    </g>
</svg>