<?xml version="1.0" encoding="UTF-8"?>
<svg width="42px" height="42px" viewBox="0 0 42 42" version="1.1" xmlns="http://www.w3.org/2000/svg" xmlns:xlink="http://www.w3.org/1999/xlink">
    <!-- Generator: sketchtool 52.2 (67145) - http://www.bohemiancoding.com/sketch -->
    <title>576BBD46-77B2-4BDF-9A88-7D4CA1A66C7F</title>
    <desc>Created with sketchtool.</desc>
    <g id="Desktop" stroke="none" stroke-width="1" fill="none" fill-rule="evenodd">
        <g id="SociumEx-1920px-#2-upd" transform="translate(-1431.000000, -3382.000000)">
            <rect fill="#FFFFFF" x="0" y="0" width="1920" height="6831"></rect>
            <g id="ui-/-icon-/-coins-copy-8" transform="translate(1431.000000, 3382.000000)" stroke="#004BFF" stroke-width="2">
                <path d="M16.5,19.5 C21.4705627,19.5 25.5,15.4705627 25.5,10.5 C25.5,5.52943725 21.4705627,1.5 16.5,1.5" id="Oval-6" transform="translate(21.000000, 10.500000) rotate(-90.000000) translate(-21.000000, -10.500000) "></path>
                <rect id="Rectangle-9" x="7" y="24" width="20" height="12"></rect>
                <polygon id="Rectangle-9-Copy-2" transform="translate(15.500000, 21.000000) scale(1, -1) translate(-15.500000, -21.000000) " points="7 18 27 18 24 24 4 24"></polygon>
                <rect id="Rectangle-9-Copy" x="27" y="24" width="8" height="12"></rect>
                <polygon id="Rectangle-9-Copy-3" transform="translate(33.000000, 21.000000) scale(1, -1) translate(-33.000000, -21.000000) " points="27 18 35 18 39 24 31 24"></polygon>
            </g>
        </g>
    </g>
</svg>